Begin query: [Kills(3, 2)]
Unified Kills(3, 2) and ~Kills(3, 2) with []
	Unified clauses: [Kills(1, 2) | Kills(3, 2)] --- [~Kills(3, 2)]
Resolving: [Kills(1, 2) | Kills(3, 2)] + [~Kills(3, 2)] = [Kills(1, 2)]
Telling [Kills(1, 2)]
Unified Kills(3, 2) and ~Kills(3, 2) with []
	Unified clauses: [Kills(1, 2) | Kills(3, 2)] --- [~Kills(3, 2)]
Resolving: [Kills(1, 2) | Kills(3, 2)] + [~Kills(3, 2)] = [Kills(1, 2)]
Unified ~Kills(x3, x4) and Kills(1, 2) with [('x3', 1), ('x4', 2)]
	Unified clauses: [~Loves(x5, 1) | ~Animal(2) | ~Kills(1, 2)] --- [Kills(1, 2)]
Resolving: [~Loves(x5, 1) | ~Animal(2) | ~Kills(1, 2)] + [Kills(1, 2)] = [~Loves(x8, 1) | ~Animal(2)]
Telling [~Loves(x8, 1) | ~Animal(2)]
Unified Kills(3, 2) and ~Kills(3, 2) with []
	Unified clauses: [Kills(1, 2) | Kills(3, 2)] --- [~Kills(3, 2)]
Resolving: [Kills(1, 2) | Kills(3, 2)] + [~Kills(3, 2)] = [Kills(1, 2)]
Unified Animal(x7) and ~Animal(2) with [('x7', 2)]
	Unified clauses: [~Cat(2) | Animal(2)] --- [~Animal(2) | ~Loves(x8, 1)]
Resolving: [~Cat(2) | Animal(2)] + [~Animal(2) | ~Loves(x8, 1)] = [~Cat(2) | ~Loves(x9, 1)]
Telling [~Cat(2) | ~Loves(x9, 1)]
Unified Cat(2) and ~Cat(2) with []
	Unified clauses: [Cat(2)] --- [~Cat(2) | ~Loves(x9, 1)]
Resolving: [Cat(2)] + [~Cat(2) | ~Loves(x9, 1)] = [~Loves(xa, 1)]
Telling [~Loves(xa, 1)]
Unified Cat(2) and ~Cat(2) with []
	Unified clauses: [Cat(2)] --- [~Cat(2) | ~Loves(x9, 1)]
Resolving: [Cat(2)] + [~Cat(2) | ~Loves(x9, 1)] = [~Loves(xb, 1)]
Unified Loves(G(x1), x1) and ~Loves(xa, 1) with [('xa', Function('G', ('x1',))), ('x1', 1)]
	Unified clauses: [Loves(G(1), 1) | Animal(F(1))] --- [~Loves(G(1), 1)]
Resolving: [Loves(G(1), 1) | Animal(F(1))] + [~Loves(G(1), 1)] = [Animal(F(1))]
Telling [Animal(F(1))]
Unified Cat(2) and ~Cat(2) with []
	Unified clauses: [Cat(2)] --- [~Cat(2) | ~Loves(x9, 1)]
Resolving: [Cat(2)] + [~Cat(2) | ~Loves(x9, 1)] = [~Loves(xc, 1)]
Unified Loves(G(x1), x1) and ~Loves(xa, 1) with [('xa', Function('G', ('x1',))), ('x1', 1)]
	Unified clauses: [Loves(G(1), 1) | Animal(F(1))] --- [~Loves(G(1), 1)]
Resolving: [Loves(G(1), 1) | Animal(F(1))] + [~Loves(G(1), 1)] = [Animal(F(1))]
Unified ~Animal(x6) and Animal(F(1)) with [('x6', Function('F', (1,)))]
	Unified clauses: [Loves(1, F(1)) | ~Animal(F(1))] --- [Animal(F(1))]
Resolving: [Loves(1, F(1)) | ~Animal(F(1))] + [Animal(F(1))] = [Loves(1, F(1))]
Telling [Loves(1, F(1))]
Unified Cat(2) and ~Cat(2) with []
	Unified clauses: [Cat(2)] --- [~Cat(2) | ~Loves(x9, 1)]
Resolving: [Cat(2)] + [~Cat(2) | ~Loves(x9, 1)] = [~Loves(xd, 1)]
Unified Loves(G(x1), x1) and ~Loves(xa, 1) with [('xa', Function('G', ('x1',))), ('x1', 1)]
	Unified clauses: [Loves(G(1), 1) | Animal(F(1))] --- [~Loves(G(1), 1)]
Resolving: [Loves(G(1), 1) | Animal(F(1))] + [~Loves(G(1), 1)] = [Animal(F(1))]
Unified ~Animal(x6) and Animal(F(1)) with [('x6', Function('F', (1,)))]
	Unified clauses: [Loves(1, F(1)) | ~Animal(F(1))] --- [Animal(F(1))]
Resolving: [Loves(1, F(1)) | ~Animal(F(1))] + [Animal(F(1))] = [Loves(1, F(1))]
Unified Loves(1, x6) and ~Loves(xa, 1) with [('xa', 1), ('x6', 1)]
	Unified clauses: [~Animal(1) | Loves(1, 1)] --- [~Loves(1, 1)]
Resolving: [~Animal(1) | Loves(1, 1)] + [~Loves(1, 1)] = [~Animal(1)]
Telling [~Animal(1)]
Unified Cat(2) and ~Cat(2) with []
	Unified clauses: [Cat(2)] --- [~Cat(2) | ~Loves(x9, 1)]
Resolving: [Cat(2)] + [~Cat(2) | ~Loves(x9, 1)] = [~Loves(xe, 1)]
Unified Loves(G(x1), x1) and ~Loves(xa, 1) with [('xa', Function('G', ('x1',))), ('x1', 1)]
	Unified clauses: [Loves(G(1), 1) | Animal(F(1))] --- [~Loves(G(1), 1)]
Resolving: [Loves(G(1), 1) | Animal(F(1))] + [~Loves(G(1), 1)] = [Animal(F(1))]
Unified ~Animal(x6) and Animal(F(1)) with [('x6', Function('F', (1,)))]
	Unified clauses: [Loves(1, F(1)) | ~Animal(F(1))] --- [Animal(F(1))]
Resolving: [Loves(1, F(1)) | ~Animal(F(1))] + [Animal(F(1))] = [Loves(1, F(1))]
Unified Loves(1, x6) and ~Loves(xa, 1) with [('xa', 1), ('x6', 1)]
	Unified clauses: [~Animal(1) | Loves(1, 1)] --- [~Loves(1, 1)]
Resolving: [~Animal(1) | Loves(1, 1)] + [~Loves(1, 1)] = [~Animal(1)]
Unified Animal(x7) and ~Animal(1) with [('x7', 1)]
	Unified clauses: [~Cat(1) | Animal(1)] --- [~Animal(1)]
Resolving: [~Cat(1) | Animal(1)] + [~Animal(1)] = [~Cat(1)]
Telling [~Cat(1)]
Unified Cat(2) and ~Cat(2) with []
	Unified clauses: [Cat(2)] --- [~Cat(2) | ~Loves(x9, 1)]
Resolving: [Cat(2)] + [~Cat(2) | ~Loves(x9, 1)] = [~Loves(xf, 1)]
Unified Loves(G(x1), x1) and ~Loves(xa, 1) with [('xa', Function('G', ('x1',))), ('x1', 1)]
	Unified clauses: [Loves(G(1), 1) | Animal(F(1))] --- [~Loves(G(1), 1)]
Resolving: [Loves(G(1), 1) | Animal(F(1))] + [~Loves(G(1), 1)] = [Animal(F(1))]
Unified ~Animal(x6) and Animal(F(1)) with [('x6', Function('F', (1,)))]
	Unified clauses: [Loves(1, F(1)) | ~Animal(F(1))] --- [Animal(F(1))]
Resolving: [Loves(1, F(1)) | ~Animal(F(1))] + [Animal(F(1))] = [Loves(1, F(1))]
Unified Loves(1, x6) and ~Loves(xa, 1) with [('xa', 1), ('x6', 1)]
	Unified clauses: [~Animal(1) | Loves(1, 1)] --- [~Loves(1, 1)]
Resolving: [~Animal(1) | Loves(1, 1)] + [~Loves(1, 1)] = [~Animal(1)]
Unified Animal(x7) and ~Animal(1) with [('x7', 1)]
	Unified clauses: [~Cat(1) | Animal(1)] --- [~Animal(1)]
Resolving: [~Cat(1) | Animal(1)] + [~Animal(1)] = [~Cat(1)]
Unified Kills(3, 2) and ~Kills(3, 2) with []
	Unified clauses: [Kills(1, 2) | Kills(3, 2)] --- [~Kills(3, 2)]
Resolving: [Kills(1, 2) | Kills(3, 2)] + [~Kills(3, 2)] = [Kills(1, 2)]
Unified ~Loves(x2, F(x2)) and Loves(1, F(1)) with [('x2', 1)]
	Unified clauses: [~Loves(1, F(1)) | Loves(G(1), 1)] --- [Loves(1, F(1))]
Resolving: [~Loves(1, F(1)) | Loves(G(1), 1)] + [Loves(1, F(1))] = [Loves(G(1), 1)]
Telling [Loves(G(1), 1)]
Unified ~Loves(xa, 1) and Loves(G(1), 1) with [('xa', Function('G', (1,)))]
	Unified clauses: [~Loves(G(1), 1)] --- [Loves(G(1), 1)]
Resolving: [~Loves(G(1), 1)] + [Loves(G(1), 1)] = []
Contradiction reached!
        [Cat(2)]
    [~Loves(xa, 1)]
            [~Cat(x7) | Animal(x7)]
        [~Cat(2) | ~Loves(x9, 1)]
                [~Animal(x4) | ~Kills(x3, x4) | ~Loves(x5, x3)]
            [~Loves(x8, 1) | ~Animal(2)]
                    [Kills(1, 2) | Kills(3, 2)]
                [Kills(1, 2)]
                    [~Kills(3, 2)]
[]
        [~Loves(x2, F(x2)) | Loves(G(x2), x2)]
    [Loves(G(1), 1)]
            [Loves(1, x6) | ~Animal(x6)]
        [Loves(1, F(1))]
                [Animal(F(x1)) | Loves(G(x1), x1)]
            [Animal(F(1))]
                    [Cat(2)]
                [~Loves(xa, 1)]
                        [~Cat(x7) | Animal(x7)]
                    [~Cat(2) | ~Loves(x9, 1)]
                            [~Animal(x4) | ~Kills(x3, x4) | ~Loves(x5, x3)]
                        [~Loves(x8, 1) | ~Animal(2)]
                                [Kills(1, 2) | Kills(3, 2)]
                            [Kills(1, 2)]
                                [~Kills(3, 2)]
Telling [Kills(3, 2)]
Curiosity killed the cat: True
