World Parameters: (10, (0.3, 0.3, 0.3))
P X P W W P - P W X 
P P W - W X P W W X 
P P W X W - X W W W 
- X P - W ^ P P X X 
P X P W X P - P X X 
W W P W - P P P P X 
X X P P X P W W W - 
W X P P X P X W X W 
P W X - W W - X X X 
W X P P P X @ X P X 

Reflex:
	Score: -10013
	Gold Found:  False
	Wumpuses Killed:  0
	Deaths by Wumpus:  10
	Deaths by Pit:  0
Logical:
	Score: -1288
	Gold Found:  False
	Wumpuses Killed:  1
	Deaths by Wumpus:  1
	Deaths by Pit:  0


