World Parameters: (10, (0.4, 0.1, 0.4))
W P W P P W W W P P 
P P P W P P W W X P 
W P P W P - - @ W X 
P W P P W W P P W W 
P W W W P P - X X W 
P P ^ W W P W P P P 
W X - W W P W W P W 
- W P W - - P P W X 
W W P - P P P - - X 
P P P X P P W P P W 

Reflex:
	Score: -10010
	Gold Found:  False
	Wumpuses Killed:  0
	Deaths by Wumpus:  10
	Deaths by Pit:  0
Logical:
	Score: -10026
	Gold Found:  False
	Wumpuses Killed:  6
	Deaths by Wumpus:  4
	Deaths by Pit:  6


