World Parameters: (10, (0.1, 0.1, 0.6))
X - W - X - X - W W 
W P W P X X W X W W 
P W P P W W W W X X 
- W P P W X P W P W 
P W W W - W X W - - 
P W W W - X W W W X 
W - - W W - W - W W 
- W W W - P W W X W 
W W X W X W - W W > 
W W X W W - W W X X 

Reflex:
	Score: 1000
	Gold Found:  True
	Wumpuses Killed:  0
	Deaths by Wumpus:  0
	Deaths by Pit:  0
Logical:
	Score: 1000
	Gold Found:  True
	Wumpuses Killed:  0
	Deaths by Wumpus:  0
	Deaths by Pit:  0


