World Parameters: (15, (0.1, 0.4, 0.4))
X X X P W X X P X X X - X W X 
- W W P - X W W W X X X P X X 
X X - X W W P W - - P X X X X 
W X X - X X X X - W X X W X W 
X W W W P X P X X X X W X W X 
X X W W - X P P W X X X X X X 
- W - W W - W X X W W W W X W 
P X W X X - W W W W - X W X X 
W X X P X X X X P X W X W W X 
W W X X X W P W W X W X X - X 
W P - X W W P X X W X X X W W 
X P X X X W X W X X X X X X P 
X W P W - W W X X W W X v W P 
W W X W W W X W W P - - W X W 
P W W W - W W W @ X W W X P X 

Reflex:
	Score: -10010
	Gold Found:  False
	Wumpuses Killed:  0
	Deaths by Wumpus:  10
	Deaths by Pit:  0
Logical:
	Score: -3014
	Gold Found:  False
	Wumpuses Killed:  1
	Deaths by Wumpus:  1
	Deaths by Pit:  2


