World Parameters: (15, (0.4, 0.4, 0.1))
X P P X X P X - - P X P X W P 
P W X P P P W X W P P X P X X 
W P W W P P X X X P P X P - X 
X X P X P X P X X P - X P P P 
P P X X X P P X P P X W X X P 
X P P P X P - P P X X W W P X 
X X X X W P P P @ - X X P P - 
P P P X - X P P P P W X X X X 
X X W P X P - P X X P - P P P 
X P P P P P P P P P X X X W - 
> - - P P X X X P X W X X - W 
P - X X P X X P W P X P W X X 
X X X X X - P X P P W P - W X 
X X X P X X X W X - X P X P X 
P X X P - W P X X W P X X X P 

Reflex:
	Score: -10012
	Gold Found:  False
	Wumpuses Killed:  0
	Deaths by Wumpus:  0
	Deaths by Pit:  10
Logical:
	Score: -10002
	Gold Found:  False
	Wumpuses Killed:  0
	Deaths by Wumpus:  0
	Deaths by Pit:  4


