World Parameters: (15, (0.1, 0.1, 0.6))
W - X P X W P W W - W W W W W 
X - W W W W W - P P P P W W - 
W - X X W W W X W W X W X X W 
W - - X - X W W W P P P P P P 
> W W P - W W W W W - W W W W 
W W W W W W W W W W P W - W W 
W - W X W W W W W X W P P P - 
W W P P - W W W X - W W W P W 
W W W W W X W W - W W W P - W 
X W - - - W - W - - - W X - - 
X W - W X W - W W W W W W - W 
X W W W W W W - W W W W W X - 
W - @ P W W - - P W W W W W W 
W W W W W W W W - W W W W W X 
P P - W W W W - P X - X W - W 

Reflex:
	Score: -10010
	Gold Found:  False
	Wumpuses Killed:  0
	Deaths by Wumpus:  10
	Deaths by Pit:  0
Logical:
	Score: -10062
	Gold Found:  False
	Wumpuses Killed:  12
	Deaths by Wumpus:  9
	Deaths by Pit:  1


