World Parameters: (20, (0, 0, 0))
- - - - - - - - - - - - - - - - - - - - 
- - - - - - - - - - - - - - - - - - - - 
- - - - - - - - - - - - - - - - - - - - 
- - - - - - - - - - - - - - - - - - - - 
- - - - - - - - - - - - - - - - - - - - 
- - - - - - - - - - - - - - - - - - - - 
- - - - - - - - - - - - - - - - - - - - 
- - - - - - - - - - - - - - - - - - - - 
- - - - - - - - - - - - - - - - - - - - 
- - - - - - - - - - - - - - - - - - - - 
- - - - - - - - - - - - - - - - - - - - 
- - - - - - - - - - - - - - - - - - - - 
- - - - - - - - - - - - - - - - - - - - 
- - - - - - - - - - - - - - - - - - - - 
- - - - - - - - - - - - - - - - - - - - 
- - - - - - - - - - - - - - - - - - - - 
- - - - - - - - - - - - - - - - - - - - 
- - - - - - - @ - - - - - - - - - - - - 
- - - - - - - - - - - - - - - - - - - - 
> - - - - - - - - - - - - - - - - - - - 

Reflex:
	Score: -10000
	Gold Found:  False
	Wumpuses Killed:  0
	Deaths by Wumpus:  0
	Deaths by Pit:  0
Logical:
	Score: 690
	Gold Found:  True
	Wumpuses Killed:  0
	Deaths by Wumpus:  0
	Deaths by Pit:  0


