World Parameters: (20, (0.1, 0.1, 0.1))
W - X W - - - P - - X - W X - - P - - P 
- X - P - - - X W - - - X - W P - - - P 
- W - P - - - - - W - P - - - W P P - - 
W - W X - - - - - - P - - W P W - - - - 
- - X - P - - P P W - W - W - - - P - - 
- - X - - W - - - - - - - - - - W - - - 
P - - X - - X - - X - W - - P - - P - X 
- X - X - - X - P - - - - - - X P - P - 
- - P - - - - - W - - X - - - - - - - - 
- W - - - W W - - - P - - - - - - P - - 
- - - @ X W - - - P - W - W - W X - X - 
- - - - - X W - - - - W P - - P - X W - 
P - P - - - W P W - - - X X - W - - - - 
- X - - X - W - - - - W - - X - - W - P 
- - - - P W W - - P P - - - - - - - P - 
W - P - - - X X P - - W P P - - W - W - 
- - X - W - - W - - - - P - - - - - W - 
- - - - W - X - - W - - - - X - - - - - 
- - P P - P P - - - - - W - W - - - - - 
- P W X - - - - - X - - W - v W - - - - 

Reflex:
	Score: -10012
	Gold Found:  False
	Wumpuses Killed:  0
	Deaths by Wumpus:  10
	Deaths by Pit:  0
Logical:
	Score: -10087
	Gold Found:  False
	Wumpuses Killed:  5
	Deaths by Wumpus:  6
	Deaths by Pit:  4


