World Parameters: (25, (0.4, 0.1, 0.4))
P W P P P - W P P W W P P X W W P P - P W P W P W 
- X P - P W W P X W P W W P W W P X W X W W P W X 
- P W W X P P W P P W X W P P P - X P - W P W W - 
- W W W P W P P P - W W X X W W X X W P W W W W W 
P W P W P W P W W X P W X P P P W - W W P W P P P 
P P W P X P - - P X W W W W P P P P P W W P P P W 
W W P P P P P P W W P X X P W P X - X W W - P W P 
W W P W P P X W P P P W P X - X P W P P W P W - P 
X X W P W W P P P W X P W P P W P W W W P W P W - 
P - P P - P W W P P P P P P P X P W P X W X W X P 
X P W W W P X W P W P W W - P P W P X W W P P W P 
W P W - P X P - P P W P P W W P W X W P P P P - X 
P P P W W W - W P W W P W P P P P - P W - P X P - 
- - P P - X P W - P P W W P P P W P W X W W W - P 
- - X - P P W P P X P W - W P W P P X X P - W X W 
- W P X W W X P X P P P X - X P - P P W X W W W X 
P P W W X P W P W W X W W X W P P P W W P W P W W 
P P P W W P X P W P W P W X P P X W W P P X P X W 
P P W X P W P W W W P W P W W W P P - - W P W - P 
W W X W P W W P P W W - P W P P W W P P P W P W P 
W - P W W W P W P P W > - - P P W X W P W W - W P 
P P P P - P W P W P W X W - W W - W - P P P W @ X 
X P W X W - P W P W W W W W - P W P W P P W - - W 
W W P W W X W W W W - W P P - W - W - P P W P P W 
- X W - P P W W P W P P W W - W X W P - P X W P - 

Reflex:
	Score: -10012
	Gold Found:  False
	Wumpuses Killed:  0
	Deaths by Wumpus:  0
	Deaths by Pit:  10
Logical:
	Score: -10002
	Gold Found:  False
	Wumpuses Killed:  6
	Deaths by Wumpus:  2
	Deaths by Pit:  4


