World Parameters: (5, (0.1, 0.6, 0.1))
X v - P P 
X W W X X 
- - W - W 
P X W X - 
W X @ W W 

Reflex:
	Score: -10010
	Gold Found:  False
	Wumpuses Killed:  0
	Deaths by Wumpus:  10
	Deaths by Pit:  0
Logical:
	Score: -2026
	Gold Found:  True
	Wumpuses Killed:  5
	Deaths by Wumpus:  2
	Deaths by Pit:  1


